module apigo

go 1.14

require (
	github.com/go-sql-driver/mysql v1.5.0
	github.com/gorilla/mux v1.7.4
	github.com/piquette/finance-go v1.0.0
	github.com/shopspring/decimal v0.0.0-20200227202807-02e2044944cc // indirect
	github.com/stretchr/testify v1.5.1
)
